spritesheetlib Package
======================

:mod:`spritesheetlib` Package
-----------------------------

.. automodule:: spritesheetlib
    :members:
    :undoc-members:
    :show-inheritance:

:mod:`spritesheetlib` Module
----------------------------

.. automodule:: spritesheetlib.spritesheetlib
    :members:
    :undoc-members:
    :show-inheritance:

:mod:`spritesheetmaskgeneratorlib` Module
-----------------------------------------

.. automodule:: spritesheetlib.spritesheetmaskgeneratorlib
    :members:
    :undoc-members:
    :show-inheritance:

