testablestatemachines Package
=============================

:mod:`testablestatemachines` Package
------------------------------------

.. automodule:: examples.testablestatemachines
    :members:
    :undoc-members:
    :show-inheritance:

:mod:`testablestatemachine` Module
----------------------------------

.. automodule:: examples.testablestatemachines.testablestatemachine
    :members:
    :undoc-members:
    :show-inheritance:

